Data Visualisation :: Show me youR Data
…
1) Have a glance at the data. (tip: sample_n(df, n))

2) Produce a scatter plot: what does it tell you?

3) Fit a regression model: is there a relationship? How strong is it?
Is the relationship linear? What conclusion(s) can you draw?

4) What are the other questions you could ask; could you provide the answers to them?

😃🙌 Solution: code Q1; sample

sample_n(gapminder, 30)

## # A tibble: 30 x 6
##    country      continent  year lifeExp      pop gdpPercap
##    <fct>        <fct>     <int>   <dbl>    <int>     <dbl>
##  1 Hungary      Europe     1952    64.0  9504000     5264.
##  2 Panama       Americas   1977    68.7  1839782     5352.
##  3 Finland      Europe     1992    75.7  5041039    20647.
##  4 Cambodia     Asia       1957    41.4  5322536      434.
##  5 Iraq         Asia       1972    57.0 10061506     9576.
##  6 Sierra Leone Africa     1997    39.9  4578212      575.
##  7 New Zealand  Oceania    1982    73.8  3210650    17632.
##  8 South Africa Africa     1972    53.7 23935810     7766.
##  9 Oman         Asia       1962    43.2   628164     2925.
## 10 Honduras     Americas   1957    44.7  1770390     2220.
## # … with 20 more rows
…
